var_name                   , bin_type , default_val_type , xml_vset_src
events_click_count             , count    , count            , ckv_eventsTODO
events_click_rcy               , day      , recency          , keytsday_eventsTODO
non_travel_click_count         , count    , count            , ckv_nontravelTODO
non_travel_click_rcy           , day      , recency          , keytsday_nontravelTODO
others_click_count             , count    , count            , ckv_othersTODO
others_click_rcy               , day      , recency          , keytsday_othersTODO
airline_asia_click_count       , count    , count            , ckv_12095
airline_asia_click_rcy         , day      , recency          , keytsday_12095
airline_click_count            , count    , count            , ckv_12087
airline_click_rcy              , day      , recency          , keytsday_12087
airline_europe_click_count     , count    , count            , ckv_12094
airline_europe_click_rcy       , day      , recency          , keytsday_12094
car_rental_click_count         , count    , count            , ckv_12089
car_rental_click_rcy           , day      , recency          , keytsday_12089
credit_card_click_count        , count    , count            , ckv_12096
credit_card_click_rcy          , day      , recency          , keytsday_12096
cruise_click_count             , count    , count            , ckv_12098
cruise_click_rcy               , day      , recency          , keytsday_12098
entertainment_click_count      , count    , count            , ckv_12101
entertainment_click_rcy        , day      , recency          , keytsday_12101
financial_click_count          , count    , count            , ckv_12091
financial_click_rcy            , day      , recency          , keytsday_12091
gds_click_count                , count    , count            , ckv_12097
gds_click_rcy                  , day      , recency          , keytsday_12097
hotel_click_count              , count    , count            , ckv_12088
hotel_click_rcy                , day      , recency          , keytsday_12088
insurance_click_count          , count    , count            , ckv_12102
insurance_click_rcy            , day      , recency          , keytsday_12102
meta_search_click_count        , count    , count            , ckv_12092
meta_search_click_rcy          , day      , recency          , keytsday_12092
ota_click_count                , count    , count            , ckv_12093
ota_click_rcy                  , day      , recency          , keytsday_12093
rail_click_count               , count    , count            , ckv_12100
rail_click_rcy                 , day      , recency          , keytsday_12100
telecom_click_count            , count    , count            , ckv_12099
telecom_click_rcy              , day      , recency          , keytsday_12099
tourism_click_count            , count    , count            , ckv_12090
tourism_click_rcy              , day      , recency          , keytsday_12090