lst_dstn,conv_rate,num_to_dstn,lst_dstnLev
other,0.003903597309090947,3866946,0
DF,0.002956538878486252,10147,1
PH,0.0035522175987009034,9853,1
HKG,0.003563791874554526,8418,1
CL,0.003622313450857281,8282,1
OR,0.0037241173841799495,6713,1
SDQ,0.003795066413662239,4743,1
FCO,0.004007012271475081,3993,2
LA,0.004113924050632912,3160,2
DUB,0.004324324324324324,3700,2
MI,0.004457179242279528,3141,2
SYD,0.004573668735707285,3061,2
CDG,0.004665422553985604,7502,3
SIN,0.004676347526458282,4063,3
PEK,0.005143277002204262,6805,3
AUA,0.00562429696287964,5334,3
NRT,0.0056331680937359175,8876,3
HNL,0.005643414922238992,15239,4
BCN,0.005662157911292859,3179,4
PUJ,0.005745388569700635,3307,4
OGG,0.005785667324128862,7605,4
RIC,0.005860415556739478,3754,4
SJU,0.005920120070040857,11993,5
CUN,0.006042955951947579,13735,5
SJC,0.006109150149334781,7366,5
PWM,0.006201044386422976,3064,5
PVR,0.006297229219143577,4764,5
PVG,0.006307490144546649,7610,6
IAH,0.006358799286461217,130056,6
MBJ,0.006416131989000917,3273,6
LHR,0.006474154763128147,19462,6
YYZ,0.006504385532669754,10147,6
MYR,0.006548788474132285,4581,6
LGB,0.006577674598568389,5169,7
IAD,0.0065969062784349405,57148,7
KOA,0.006634345496300076,3919,7
SDF,0.006670372429127293,3598,7
ORD,0.006715738009543655,221718,7
IND,0.006734469488730071,7276,8
DTW,0.00683772733681094,14186,8
ATL,0.006872157655381505,19790,8
TLV,0.006906077348066298,3620,8
FRA,0.006933744221879815,7788,8
AMS,0.006952169076751946,3596,9
BUF,0.007053118800969804,4537,9
SMF,0.007086962941089621,6773,9
BDL,0.0070921985815602835,5640,9
LIH,0.007110536522301228,3094,9
MUC,0.007203179334326876,4026,10
MSP,0.0072129497609661995,11923,10
OAK,0.007401480296059212,4999,10
OKC,0.007450771687067589,3758,10
SEA,0.00745887401655257,19574,10
STL,0.0074727428641430844,8163,11
CLT,0.007549875574676283,23709,11
LAS,0.007555995322479086,44468,11
YVR,0.007583737097113966,4747,11
SJO,0.007589556769884639,3294,11
MCO,0.007601809954751132,49725,11
PDX,0.00764787242697909,12291,12
MIA,0.0077228013507561295,34055,12
DEN,0.007771406641533286,177188,12
TUS,0.007860262008733625,4580,12
BWI,0.007875208238679389,13206,12
CVG,0.008028545941123996,5605,13
SAT,0.008075172515049186,6811,13
DFW,0.008100490468052998,45059,13
LGA,0.008163645393593245,32216,13
BOS,0.008198392951829343,73551,13
SJD,0.008221993833504625,5838,14
SLC,0.008271298593879239,9672,14
SAN,0.00832042487275946,22595,14
BNA,0.00834630074975244,14138,14
DCA,0.008372451481818819,28546,14
TPA,0.008422728796513576,23864,15
RDU,0.00861244019138756,13585,15
ABQ,0.008630744110100303,4287,15
MCI,0.008642319487036521,7174,15
JFK,0.008657346507999633,32689,15
CLE,0.008690928843020097,12887,16
MEM,0.00888995675156175,4162,16
PHL,0.00889070753664162,26882,16
AUS,0.009011145364002845,16868,16
SAV,0.009209383145091225,5755,16
RNO,0.009268537074148297,3992,16
OMA,0.009377093101138647,4479,17
MSY,0.009381077679899324,17482,17
FLL,0.009422144763357116,36722,17
LAX,0.009476026111716397,109223,17
SFO,0.009501695204991596,140396,17
NAS,0.009708737864077669,3399,18
EWR,0.00979812420937596,133597,18
CHS,0.009889834752128191,7988,18
RSW,0.010017909111260354,17868,18
CMH,0.010120068610634648,5830,18
PHX,0.010209726902378917,39766,19
MEX,0.010399882818221767,6827,19
MKE,0.01053159478435306,3988,19
JAX,0.01068289384719405,7395,19
PBI,0.010786023380481818,15483,19
UNK,0.010801522032650055,16294,20
PIT,0.011016042780748664,9350,20
SRQ,0.011051143664867643,3891,20
SNA,0.012964930924548352,14115,20
PSP,0.013532215900353682,6503,20
LED,0.036036036036036036,111,20
