domain,conv_rate,num_from_domain,domainlev
other,0.003541620215428906,1780541,0
acclaimmag.com,0.0,4987,2
androidauthority.com,0.0,4636,2
diply.com,0.0,17233,2
jetlaggin.com,0.0,7423,2
nametests.com,0.0,21262,2
thesimsresource.com,0.0,4030,2
trustedreviews.com,0.0,4211,2
urbo.com,0.0,11488,2
simplyrecipes.com,4.937296336526118e-05,20254,2
lifedaily.com,6.055468087683178e-05,16514,2
microsoft.com,8.75404874754574e-05,79963,3
roughlyexplained.com,9.29022668153103e-05,10764,3
intouchweekly.com,9.617234083477592e-05,10398,3
zoo.com,0.0001223091976516634,8176,3
thedailybeast.com,0.0001285470964424591,31117,3
ratemyjob.com,0.0001292156609381057,7739,4
therecipecritic.com,0.00016469038208168644,6072,4
okcupid.com,0.00017176228100309173,5822,4
cinemablend.com,0.0002007628990162618,9962,4
thefunnybeaver.com,0.00022168033695411216,4511,4
jigsawplanet.com,0.00024157506945283246,8279,5
t-mobile.com,0.00028312570781426955,3532,5
tworeddots.com,0.00030807147258163895,3246,5
distractify.com,0.00032133676092544985,6224,5
newsd.co,0.0003429649318357198,11663,5
shareably.net,0.00035298270384751147,8499,6
grizly.com,0.0003572704537334762,27990,6
kmart.com,0.00037425149700598805,8016,6
howstuffworks.com,0.00040394247859104864,37134,6
alot.com,0.00041080414912190614,9737,6
olivesoftware.com,0.00041995852909525183,38099,7
bt.co,0.0004495055439017081,6674,7
worldlifestyle.com,0.0004992511233150275,6009,7
americanupbeat.com,0.0005271481286241434,17073,7
tagged.com,0.0005333333333333334,5625,7
wineverygame.com,0.0005455537370430987,3666,8
icepop.com,0.0005525625086337892,36195,8
webmd.com,0.0005678591709256105,19371,8
epicurious.com,0.0005706134094151213,7010,8
sheknows.com,0.0005836008170411438,10281,8
historyinorbit.com,0.000591715976331361,5070,9
parentsdome.com,0.000596836765144733,3351,9
damndelicious.net,0.0005974905397331209,5021,9
workandmoney.com,0.0006369426751592356,4710,9
mypoints.com,0.0006400682739492212,4687,9
crazygames.com,0.0006633499170812604,6030,10
directexpose.com,0.0006972150133632877,25817,10
cheezburger.com,0.0006994637444625787,4289,10
askamanager.org,0.0007752605736928245,11609,10
247solitaire.com,0.0008329862557267805,12005,10
ondemandkorea.com,0.0008504204856845885,10583,11
trend-chaser.com,0.0008783332747777817,28463,11
sportschew.com,0.0008999280057595393,5556,11
securenetsystems.net,0.0009038322487346348,5532,11
mandatory.com,0.0009149130832570906,3279,11
minimalistbaker.com,0.000916030534351145,3275,12
cookieandkate.com,0.0009242856042517138,12983,12
scrabblecheat.com,0.001001401962747847,4993,12
microsoftadvertisingexchange.com,0.0010361431096483208,16407,12
netzero.net,0.0010561892691170257,14202,12
livingly.com,0.0010799136069114472,5556,13
biblehub.com,0.0011737089201877935,5112,13
scribol.com,0.001176701313983134,5099,13
pch.com,0.0011822480902146234,21992,13
pythonforbeginners.com,0.0011910838863365663,5877,13
udn.com,0.0011931394481730052,6705,14
tiebreaker.com,0.0012012012012012011,4995,14
swagbucks.com,0.0012218963831867058,4092,14
topix.com,0.0012288367012561442,7324,14
twentytwowords.com,0.0012414649286157666,11277,14
futbin.com,0.0012556053811659193,5575,15
facebook.com,0.0012709508300897609,25178,15
stockcharts.com,0.0013189712024620796,4549,15
cardgames.io,0.0013246731048628321,23402,15
biblegateway.com,0.0013499831252109348,11852,15
slickdeals.net,0.0013644891693672181,5863,16
zynga.com,0.0013959085439229843,20775,16
mtonews.com,0.0013986013986013986,5005,16
shmoop.com,0.0014054813773717498,4269,16
op.gg,0.0014187751241428233,4229,16
wildtangent.com,0.001424316975268678,15446,17
thesun.co.uk,0.0014564520827264782,3433,17
ratemyprofessors.com,0.0014573718727228565,8234,17
juno.com,0.001459815958916608,38361,17
worldstarhiphop.com,0.001463994876017934,10929,18
accuradio.com,0.0014813817251363545,14851,18
vnexpress.net,0.0015096618357487923,3312,18
tvtropes.org,0.001511879049676026,4630,18
spotify.com,0.0015312406377950135,30041,18
bensbargains.com,0.0015406737880032868,9736,19
reverso.net,0.0016090104585679806,3729,19
domesticatedcompanion.com,0.0016876342436330162,6518,19
chess.com,0.0017100280933186759,8187,19
toofab.com,0.0017110730872647274,4091,19
radaronline.com,0.0017178441056474125,4657,20
wordfind.com,0.0017194792434291329,4071,20
ksl.com,0.0018150758061071962,9366,20
azcentral.com,0.0018244475978106628,4933,20
investing.com,0.0018504408403178403,9187,20
honesttopaws.com,0.0018645121193287756,3218,21
weatherbug.com,0.0018720217835262083,5876,21
daily-choices.com,0.0018997515709484145,6843,21
finviz.com,0.0019078768056691197,3669,21
milb.com,0.0019169329073482429,3130,21
sporcle.com,0.001972530683810637,13688,22
gomiblog.com,0.0019971469329529245,3505,22
skinnytaste.com,0.002056484782012613,7294,22
boredomtherapy.com,0.002089100120123257,19147,22
autooverload.com,0.0020953378732320588,3818,22
daily-stuff.com,0.002103049421661409,3804,23
espn.com,0.00211864406779661,10384,23
stocktwits.com,0.002119285498032092,6606,23
toshiba.com,0.0021661766981278044,6463,23
coolmathgames.com,0.0021783328492593667,6886,23
nickiswift.com,0.0022147651006711407,14900,24
accuweather.com,0.0022176022176022174,115440,24
bbc.com,0.002242152466367713,4460,24
researchgate.net,0.00224791265253693,6228,24
wordplays.com,0.0022733013387218996,3959,24
newarena.com,0.0022755119901977944,5713,25
sigalert.com,0.00236096537250787,3812,25
cnbc.com,0.002403320952589032,4577,25
heraldweekly.com,0.0024054982817869417,5820,25
fantasypros.com,0.0024678111587982834,9320,25
googlesyndication.com,0.002506405257881252,35908,26
giftconnect.com,0.002525993842036634,146477,26
earthlink.net,0.0025741283805799935,61380,26
windstream.net,0.0025884383088869713,3477,26
realgm.com,0.0026102845210127902,3831,26
dmv.org,0.0026404731727925645,9468,27
ebay.com,0.002658751115400725,439304,27
arstechnica.com,0.002676977989292088,3362,27
azlyrics.com,0.0027066416822819073,4803,27
scrabblewordfinder.org,0.0027707808564231737,3970,27
flightaware.com,0.002785620176924525,26565,28
huaren.us,0.0028526148969889066,6310,28
yimg.com,0.0028773429792831305,12164,28
match.com,0.0028821410190427174,19430,28
doubleclick.net,0.002918577640121508,16789,28
si.com,0.002954573433460544,8123,29
staradvertiser.com,0.0029611233164581145,10469,29
quizlet.com,0.0029640008622547963,18556,29
radio.com,0.002968299711815562,34700,29
makeuseof.com,0.002987750224081267,3347,29
pastemagazine.com,0.003050330452465684,5901,30
draftkings.com,0.003060183611016661,5882,30
rollingstone.com,0.003064127817903261,9138,30
wenxuecity.com,0.003093729330687661,46869,30
detroitnews.com,0.003097345132743363,4520,30
topix.net,0.0031323414252153485,3831,31
sears.com,0.0031847133757961785,4710,31
ranker.com,0.003193960511033682,3444,31
topixoffbeat.com,0.0033132530120481927,6640,31
indiewire.com,0.003325272067714631,3308,31
xfinity.com,0.0033678977201537607,199531,32
jsonline.com,0.003368623676612127,4156,32
newsmemory.com,0.0034088142196250304,4107,32
lenovo.com,0.003485079503376171,9182,32
sacbee.com,0.003528773072747014,3684,32
creaders.net,0.0035661841829242712,4767,33
usmagazine.com,0.0037064492216456633,5396,33
aol.com,0.0037276260587720818,213809,33
360daily.com,0.003745318352059925,14685,33
coinmarketcap.com,0.003761574074074074,3456,33
freep.com,0.0038186157517899762,6285,34
drugs.com,0.0038188761593016913,3666,34
variety.com,0.003838771593090211,6773,34
historydaily.org,0.003907203907203907,4095,34
allrecipes.com,0.003912502223012627,5623,35
jcpenney.com,0.003913415678121561,8177,35
nhl.com,0.004085556356645037,4161,35
tasteofhome.com,0.004097880810209577,8541,35
nasdaq.com,0.004108156558111742,13388,35
groovyhistory.com,0.004123711340206186,4850,36
deadline.com,0.00412664050872683,14782,36
cheatsheet.com,0.004166068093664703,6961,36
time.com,0.0041981528127623844,9528,36
microsoftcasualgames.com,0.004383493017721836,15969,36
teamsnap.com,0.004435951682249369,14653,37
seekingalpha.com,0.00446701750091788,16342,37
har.com,0.0046148682664876655,11918,37
instructables.com,0.0047943086916176925,6466,37
centurylink.net,0.004817762882279012,4774,37
kohls.com,0.004864753978255136,34123,38
greeningz.com,0.004930662557781202,3245,38
live.com,0.004992065591113462,60496,38
cox.net,0.005006007208650381,4994,38
realtor.com,0.005115447952068954,28541,38
att.net,0.005345701819897017,25441,39
snopes.com,0.005360333531864205,3358,39
maxpreps.com,0.00539568345323741,3892,39
therealdeal.com,0.005511328842620943,3266,39
foodnetwork.com,0.005565217391304348,8625,39
bedbathandbeyond.com,0.0057918913521070505,5007,40
wayfair.com,0.005962579672400795,14591,40
businessinsider.com,0.006105398457583547,3112,40
timeout.com,0.006130116669962428,5057,40
ap.org,0.00619271736437949,8074,40
thesaurus.com,0.00626017278076875,7987,41
vox.com,0.0062704471101417665,3668,41
imgur.com,0.006308411214953271,4280,41
realclearpolitics.com,0.006448492664839594,6203,41
9news.com,0.006463527239150508,3249,41
streeteasy.com,0.0066254416961130744,4528,42
thechive.com,0.006694129763130793,3884,42
evite.com,0.006936798062100859,27246,42
tmz.com,0.007007119233140871,17839,42
overstock.com,0.007177902962020716,11006,42
reddit.com,0.007178178337852927,12538,43
express.co.uk,0.007489514679448772,3338,43
usatoday.com,0.007531553900268984,24165,43
theringer.com,0.008125188083057478,3323,43
trulia.com,0.008225939128050452,7294,43
mlb.com,0.008256274768824307,3028,44
zillow.com,0.008296825139272,92445,44
reuters.com,0.0084922916122289,7654,44
weather.com,0.008531367596267849,38798,44
dailymail.co.uk,0.008635631100434821,32887,44
washingtonpost.com,0.008926673751328374,14115,45
merriam-webster.com,0.00954653937947494,5028,45
boston.com,0.010309278350515464,3395,45
msn.com,0.010366084149922945,68782,45
yahoo.com,0.011127650972176278,217656,45
wunderground.com,0.011544644161917288,6843,46
whitepages.com,0.012655024044545684,3951,46
cnn.com,0.013068700299830531,30684,46
drudgereport.com,0.014612343132198728,5817,46
cbslocal.com,0.014828544949026877,3237,46
travelmath.com,0.015391579900407425,4418,47
people.com,0.0159789644012945,4944,47
onetravel.com,0.019768234492160874,5868,47
nypost.com,0.02139917695473251,3645,47
sfgate.com,0.02481261307831481,3869,47
cheapoair.com,0.027049932904866163,240703,48
flightnetwork.com,0.029677242888402625,7312,48
patch.com,0.03164556962025317,158,48
owler.com,0.031746031746031744,126,48
momondo.com,0.03600654664484452,611,48
tripsavvy.com,0.04,125,49
cheapflights.com,0.041666666666666664,120,49
cheapflightnow.com,0.04838709677419355,124,49
skyscanner.com,0.04897159647404505,1021,49
typing.com,0.049107142857142856,224,49
priceline.com,0.049775601795185635,2451,50
intentmedia.net,0.06756756756756757,222,50
dealbase.com,0.06944444444444445,144,50
tripadvisor.com,0.07526881720430108,372,50
kayak.com,0.08144210064978372,52479,50
