country_state,conv_rate,num_at_location,country_statelev
other,0.0,231,0
US_GA,0.001793678960241715,104255,1
US_MN,0.002029226704039475,68499,2
US_MI,0.0027210742509226633,95918,3
US_SC,0.002786141194445693,44506,4
US_KY,0.0028090999010880317,25275,5
US_MS,0.0028958351077421,11741,6
US_KS,0.0029049528245264447,41653,7
US_UT,0.0029522275899087494,37260,8
US_AL,0.003148034398034398,26048,9
US_NC,0.0031678626578254157,88072,10
US_AK,0.003190596137699412,5955,11
US_TN,0.003221327409053041,54015,12
US_WV,0.00341796875,10240,13
US_SD,0.003459210147016431,10407,14
US_IN,0.0035069171361895796,77561,15
US_WA,0.0035235775187054115,91952,16
US_AZ,0.003536968777103209,73792,17
US_MO,0.003657231208372978,67264,18
US_DE,0.0038815739401780957,13139,19
US_AR,0.003927103147818617,16297,20
US_FL,0.003966786322926865,275790,21
US_IA,0.0039982776650058435,32514,22
US_OK,0.004104533815333634,26556,23
US_NV,0.004106608648354637,36770,24
US_WI,0.004288151483946329,65063,25
US_ID,0.004465458366167586,19035,26
US_NH,0.004488569363612157,26289,27
US_NM,0.0047603414313854234,18276,28
US_MD,0.004785998829459852,105934,29
US_NE,0.004816402280058327,22631,30
US_OH,0.004831937700842071,127899,31
US_LA,0.005072673272531343,38047,32
US_ND,0.005170630816959669,9670,33
US_IL,0.005481678742499438,346974,34
US_TX,0.005514820780344736,415970,35
US_MT,0.005626903217264663,15106,36
US_OR,0.005643677980223546,63611,37
US_PA,0.005655773626920298,168854,38
US_MA,0.005712174979882063,151606,39
US_CT,0.005727998628708558,70007,40
US_NY,0.005870464621668237,472535,41
US_CA,0.006045855336648843,1326694,42
US_DC,0.00605808972012003,52987,43
US_CO,0.006110372625530638,326494,44
US_VA,0.006238109176057369,163992,45
US_RI,0.006528135343876425,10876,46
US_WY,0.006638297872340425,11750,47
US_HI,0.006658044738228673,41754,48
US_NJ,0.007049055234497148,562203,49
US_VT,0.007500407630849503,12266,50
US_ME,0.008146766169154229,16080,50
