dataproviderid,count,dplev
1596,1,smallDpGroup
2000,7,smallDpGroup
1480,8,smallDpGroup
2120,10,smallDpGroup
1863,17,smallDpGroup
2372,28,smallDpGroup
1549,72,smallDpGroup
2725,146,smallDpGroup
2135,200,smallDpGroup
2281,277,smallDpGroup
1266,364,smallDpGroup
1510,383,smallDpGroup
2586,435,smallDpGroup
1610,620,smallDpGroup
2893,647,smallDpGroup
5015,649,smallDpGroup
2939,653,smallDpGroup
3278,676,smallDpGroup
2508,807,smallDpGroup
1461,1327,smallDpGroup
4868,1483,smallDpGroup
2748,1485,smallDpGroup
1984,1534,smallDpGroup
4521,1619,smallDpGroup
2667,1625,smallDpGroup
2098,1628,smallDpGroup
2477,1629,smallDpGroup
1084,1651,smallDpGroup
5023,1774,smallDpGroup
1545,1856,smallDpGroup
2361,2367,smallDpGroup
990,2374,smallDpGroup
4801,2454,smallDpGroup
1515,2480,smallDpGroup
2630,2485,smallDpGroup
1914,2750,smallDpGroup
1958,2931,smallDpGroup
2138,3585,smallDpGroup
2286,4478,smallDpGroup
1054,4966,smallDpGroup
2567,5591,smallDpGroup
1411,5961,smallDpGroup
1417,7380,smallDpGroup
2452,7848,smallDpGroup
4120,9343,smallDpGroup
1449,9977,smallDpGroup
1652,10005,1652
1947,10564,1947
1477,11364,1477
1438,14130,1438
1468,14281,1468
2181,19352,2181
2007,20497,2007
1824,27283,1824
1432,31736,1432
1580,35569,1580
1180,36116,1180
1837,41155,1837
3346,41665,3346
1108,46870,1108
1074,47086,1074
2407,51338,2407
1159,54224,1159
2112,54651,2112
970,63861,970
1221,64723,1221
2874,73268,2874
1758,73554,1758
1471,75697,1471
1244,79558,1244
1414,87757,1414
1040,92560,1040
1195,101602,1195
1773,104062,1773
1058,127908,1058
1062,156620,1062
2871,161943,2871
1116,205957,1116
1374,264926,1374
800,417214,800
1536,783443,1536
1057,1158266,1057
1020,1236927,1020
