os,count,oslev
BLACKBERRY_TABLET,3,smallOsGroup
GOOGLE_TV,3,smallOsGroup
MAC_OS,3,smallOsGroup
BLACKBERRY,5,smallOsGroup
SYMBIAN,19,smallOsGroup
PSP,35,smallOsGroup
UNKNOWN,118,smallOsGroup
UNKNOWN_MOBILE,279,smallOsGroup
WINDOWS_MOBILE,1462,smallOsGroup
LINUX,16751,smallOsGroup
ANDROID_TABLET,35614,ANDROID_TABLET
MAC_OS_X_IPAD,54572,MAC_OS_X_IPAD
ANDROID,65050,ANDROID
CHROME_OS,67208,CHROME_OS
MAC_OS_X_IPHONE,106896,MAC_OS_X_IPHONE
ANDROID_MOBILE,650531,ANDROID_MOBILE
MAC_OS_X,927189,MAC_OS_X
WINDOWS,4072575,WINDOWS
